-- Merging decision tree log ---
manifest
ADDED from /home/jim/Desktop/2019MeichuHackathon/VIACocoDetector/viadetectdemo/src/main/AndroidManifest.xml:2:1-30:12
INJECTED from /home/jim/Desktop/2019MeichuHackathon/VIACocoDetector/viadetectdemo/src/main/AndroidManifest.xml:2:1-30:12
INJECTED from /home/jim/Desktop/2019MeichuHackathon/VIACocoDetector/viadetectdemo/src/main/AndroidManifest.xml:2:1-30:12
INJECTED from /home/jim/Desktop/2019MeichuHackathon/VIACocoDetector/viadetectdemo/src/main/AndroidManifest.xml:2:1-30:12
MERGED from [:snpe-libs-release:] /home/jim/.gradle/caches/transforms-2/files-2.1/ce419364cdd18fdf90e94714c35c458f/snpe-libs-release/AndroidManifest.xml:7:1-16:12
MERGED from [:VIADetect-Coco-release:] /home/jim/.gradle/caches/transforms-2/files-2.1/5d025ee33dfa131632f786675822aedb/VIADetect-Coco-release/AndroidManifest.xml:2:1-11:12
MERGED from [com.android.support:appcompat-v7:26.1.0] /home/jim/.gradle/caches/transforms-2/files-2.1/c589bb7ec2d841c67ae68a3682166223/appcompat-v7-26.1.0/AndroidManifest.xml:17:1-31:12
MERGED from [com.github.angads25:filepicker:1.1.1] /home/jim/.gradle/caches/transforms-2/files-2.1/f4843ec47a82a122f624a929425ae839/filepicker-1.1.1/AndroidManifest.xml:2:1-13:12
MERGED from [com.android.support:animated-vector-drawable:26.1.0] /home/jim/.gradle/caches/transforms-2/files-2.1/135e175a0ef22ce0a476b55a11aa6553/animated-vector-drawable-26.1.0/AndroidManifest.xml:17:1-28:12
MERGED from [com.android.support:support-vector-drawable:26.1.0] /home/jim/.gradle/caches/transforms-2/files-2.1/1a321b7ca993b48f74ebfe2a4c780bca/support-vector-drawable-26.1.0/AndroidManifest.xml:17:1-28:12
MERGED from [com.android.support:support-v4:26.1.0] /home/jim/.gradle/caches/transforms-2/files-2.1/9f83784eeafe2d776a50e825ed305ad1/support-v4-26.1.0/AndroidManifest.xml:17:1-31:12
MERGED from [com.android.support:support-media-compat:26.1.0] /home/jim/.gradle/caches/transforms-2/files-2.1/76255774f047056d070aaccfb1365509/support-media-compat-26.1.0/AndroidManifest.xml:17:1-31:12
MERGED from [com.android.support:support-fragment:26.1.0] /home/jim/.gradle/caches/transforms-2/files-2.1/835b00f0eaa3a4dded0721b4e7a325bd/support-fragment-26.1.0/AndroidManifest.xml:17:1-31:12
MERGED from [com.android.support:support-core-utils:26.1.0] /home/jim/.gradle/caches/transforms-2/files-2.1/e60f63cc7ce4683a1fb220948dd8c54d/support-core-utils-26.1.0/AndroidManifest.xml:17:1-31:12
MERGED from [com.android.support:support-core-ui:26.1.0] /home/jim/.gradle/caches/transforms-2/files-2.1/54addbd48bc777bd7c2feb0c98546e12/support-core-ui-26.1.0/AndroidManifest.xml:17:1-31:12
MERGED from [com.android.support:support-compat:26.1.0] /home/jim/.gradle/caches/transforms-2/files-2.1/40a3342781d7a4b08caa38af177e1b14/support-compat-26.1.0/AndroidManifest.xml:17:1-31:12
MERGED from [android.arch.lifecycle:runtime:1.0.0] /home/jim/.gradle/caches/transforms-2/files-2.1/d0f6449185399ce77e6ff49656abaac3/runtime-1.0.0/AndroidManifest.xml:17:1-30:12
INJECTED from /home/jim/Desktop/2019MeichuHackathon/VIACocoDetector/viadetectdemo/src/main/AndroidManifest.xml:2:1-30:12
INJECTED from /home/jim/Desktop/2019MeichuHackathon/VIACocoDetector/viadetectdemo/src/main/AndroidManifest.xml:2:1-30:12
INJECTED from /home/jim/Desktop/2019MeichuHackathon/VIACocoDetector/viadetectdemo/src/main/AndroidManifest.xml:2:1-30:12
	package
		ADDED from /home/jim/Desktop/2019MeichuHackathon/VIACocoDetector/viadetectdemo/src/main/AndroidManifest.xml:3:5-36
		INJECTED from /home/jim/Desktop/2019MeichuHackathon/VIACocoDetector/viadetectdemo/src/main/AndroidManifest.xml
		INJECTED from /home/jim/Desktop/2019MeichuHackathon/VIACocoDetector/viadetectdemo/src/main/AndroidManifest.xml
	android:versionName
		INJECTED from /home/jim/Desktop/2019MeichuHackathon/VIACocoDetector/viadetectdemo/src/main/AndroidManifest.xml
		ADDED from /home/jim/Desktop/2019MeichuHackathon/VIACocoDetector/viadetectdemo/src/main/AndroidManifest.xml:2:1-30:12
		INJECTED from /home/jim/Desktop/2019MeichuHackathon/VIACocoDetector/viadetectdemo/src/main/AndroidManifest.xml
	android:versionCode
		INJECTED from /home/jim/Desktop/2019MeichuHackathon/VIACocoDetector/viadetectdemo/src/main/AndroidManifest.xml
		ADDED from /home/jim/Desktop/2019MeichuHackathon/VIACocoDetector/viadetectdemo/src/main/AndroidManifest.xml:2:1-30:12
		INJECTED from /home/jim/Desktop/2019MeichuHackathon/VIACocoDetector/viadetectdemo/src/main/AndroidManifest.xml
	xmlns:android
		ADDED from /home/jim/Desktop/2019MeichuHackathon/VIACocoDetector/viadetectdemo/src/main/AndroidManifest.xml:2:11-69
uses-permission#android.permission.READ_EXTERNAL_STORAGE
ADDED from /home/jim/Desktop/2019MeichuHackathon/VIACocoDetector/viadetectdemo/src/main/AndroidManifest.xml:4:5-79
MERGED from [com.github.angads25:filepicker:1.1.1] /home/jim/.gradle/caches/transforms-2/files-2.1/f4843ec47a82a122f624a929425ae839/filepicker-1.1.1/AndroidManifest.xml:11:5-80
MERGED from [com.github.angads25:filepicker:1.1.1] /home/jim/.gradle/caches/transforms-2/files-2.1/f4843ec47a82a122f624a929425ae839/filepicker-1.1.1/AndroidManifest.xml:11:5-80
	android:name
		ADDED from /home/jim/Desktop/2019MeichuHackathon/VIACocoDetector/viadetectdemo/src/main/AndroidManifest.xml:4:22-77
uses-permission#android.permission.WRITE_EXTERNAL_STORAGE
ADDED from /home/jim/Desktop/2019MeichuHackathon/VIACocoDetector/viadetectdemo/src/main/AndroidManifest.xml:5:5-80
	android:name
		ADDED from /home/jim/Desktop/2019MeichuHackathon/VIACocoDetector/viadetectdemo/src/main/AndroidManifest.xml:5:22-78
uses-permission#android.permission.CAMERA
ADDED from /home/jim/Desktop/2019MeichuHackathon/VIACocoDetector/viadetectdemo/src/main/AndroidManifest.xml:6:5-64
	android:name
		ADDED from /home/jim/Desktop/2019MeichuHackathon/VIACocoDetector/viadetectdemo/src/main/AndroidManifest.xml:6:22-62
uses-permission#android.permission.INTERNET
ADDED from /home/jim/Desktop/2019MeichuHackathon/VIACocoDetector/viadetectdemo/src/main/AndroidManifest.xml:7:5-66
	android:name
		ADDED from /home/jim/Desktop/2019MeichuHackathon/VIACocoDetector/viadetectdemo/src/main/AndroidManifest.xml:7:22-64
application
ADDED from /home/jim/Desktop/2019MeichuHackathon/VIACocoDetector/viadetectdemo/src/main/AndroidManifest.xml:9:5-28:19
MERGED from [com.android.support:appcompat-v7:26.1.0] /home/jim/.gradle/caches/transforms-2/files-2.1/c589bb7ec2d841c67ae68a3682166223/appcompat-v7-26.1.0/AndroidManifest.xml:25:5-29:19
MERGED from [com.android.support:appcompat-v7:26.1.0] /home/jim/.gradle/caches/transforms-2/files-2.1/c589bb7ec2d841c67ae68a3682166223/appcompat-v7-26.1.0/AndroidManifest.xml:25:5-29:19
MERGED from [com.android.support:animated-vector-drawable:26.1.0] /home/jim/.gradle/caches/transforms-2/files-2.1/135e175a0ef22ce0a476b55a11aa6553/animated-vector-drawable-26.1.0/AndroidManifest.xml:22:5-26:19
MERGED from [com.android.support:animated-vector-drawable:26.1.0] /home/jim/.gradle/caches/transforms-2/files-2.1/135e175a0ef22ce0a476b55a11aa6553/animated-vector-drawable-26.1.0/AndroidManifest.xml:22:5-26:19
MERGED from [com.android.support:support-vector-drawable:26.1.0] /home/jim/.gradle/caches/transforms-2/files-2.1/1a321b7ca993b48f74ebfe2a4c780bca/support-vector-drawable-26.1.0/AndroidManifest.xml:22:5-26:19
MERGED from [com.android.support:support-vector-drawable:26.1.0] /home/jim/.gradle/caches/transforms-2/files-2.1/1a321b7ca993b48f74ebfe2a4c780bca/support-vector-drawable-26.1.0/AndroidManifest.xml:22:5-26:19
MERGED from [com.android.support:support-v4:26.1.0] /home/jim/.gradle/caches/transforms-2/files-2.1/9f83784eeafe2d776a50e825ed305ad1/support-v4-26.1.0/AndroidManifest.xml:25:5-29:19
MERGED from [com.android.support:support-v4:26.1.0] /home/jim/.gradle/caches/transforms-2/files-2.1/9f83784eeafe2d776a50e825ed305ad1/support-v4-26.1.0/AndroidManifest.xml:25:5-29:19
MERGED from [com.android.support:support-media-compat:26.1.0] /home/jim/.gradle/caches/transforms-2/files-2.1/76255774f047056d070aaccfb1365509/support-media-compat-26.1.0/AndroidManifest.xml:25:5-29:19
MERGED from [com.android.support:support-media-compat:26.1.0] /home/jim/.gradle/caches/transforms-2/files-2.1/76255774f047056d070aaccfb1365509/support-media-compat-26.1.0/AndroidManifest.xml:25:5-29:19
MERGED from [com.android.support:support-fragment:26.1.0] /home/jim/.gradle/caches/transforms-2/files-2.1/835b00f0eaa3a4dded0721b4e7a325bd/support-fragment-26.1.0/AndroidManifest.xml:25:5-29:19
MERGED from [com.android.support:support-fragment:26.1.0] /home/jim/.gradle/caches/transforms-2/files-2.1/835b00f0eaa3a4dded0721b4e7a325bd/support-fragment-26.1.0/AndroidManifest.xml:25:5-29:19
MERGED from [com.android.support:support-core-utils:26.1.0] /home/jim/.gradle/caches/transforms-2/files-2.1/e60f63cc7ce4683a1fb220948dd8c54d/support-core-utils-26.1.0/AndroidManifest.xml:25:5-29:19
MERGED from [com.android.support:support-core-utils:26.1.0] /home/jim/.gradle/caches/transforms-2/files-2.1/e60f63cc7ce4683a1fb220948dd8c54d/support-core-utils-26.1.0/AndroidManifest.xml:25:5-29:19
MERGED from [com.android.support:support-core-ui:26.1.0] /home/jim/.gradle/caches/transforms-2/files-2.1/54addbd48bc777bd7c2feb0c98546e12/support-core-ui-26.1.0/AndroidManifest.xml:25:5-29:19
MERGED from [com.android.support:support-core-ui:26.1.0] /home/jim/.gradle/caches/transforms-2/files-2.1/54addbd48bc777bd7c2feb0c98546e12/support-core-ui-26.1.0/AndroidManifest.xml:25:5-29:19
MERGED from [com.android.support:support-compat:26.1.0] /home/jim/.gradle/caches/transforms-2/files-2.1/40a3342781d7a4b08caa38af177e1b14/support-compat-26.1.0/AndroidManifest.xml:25:5-29:19
MERGED from [com.android.support:support-compat:26.1.0] /home/jim/.gradle/caches/transforms-2/files-2.1/40a3342781d7a4b08caa38af177e1b14/support-compat-26.1.0/AndroidManifest.xml:25:5-29:19
MERGED from [android.arch.lifecycle:runtime:1.0.0] /home/jim/.gradle/caches/transforms-2/files-2.1/d0f6449185399ce77e6ff49656abaac3/runtime-1.0.0/AndroidManifest.xml:24:5-28:19
MERGED from [android.arch.lifecycle:runtime:1.0.0] /home/jim/.gradle/caches/transforms-2/files-2.1/d0f6449185399ce77e6ff49656abaac3/runtime-1.0.0/AndroidManifest.xml:24:5-28:19
	android:supportsRtl
		ADDED from /home/jim/Desktop/2019MeichuHackathon/VIACocoDetector/viadetectdemo/src/main/AndroidManifest.xml:14:9-35
	android:label
		ADDED from /home/jim/Desktop/2019MeichuHackathon/VIACocoDetector/viadetectdemo/src/main/AndroidManifest.xml:12:9-41
	android:roundIcon
		ADDED from /home/jim/Desktop/2019MeichuHackathon/VIACocoDetector/viadetectdemo/src/main/AndroidManifest.xml:13:9-54
	android:icon
		ADDED from /home/jim/Desktop/2019MeichuHackathon/VIACocoDetector/viadetectdemo/src/main/AndroidManifest.xml:11:9-43
	android:allowBackup
		ADDED from /home/jim/Desktop/2019MeichuHackathon/VIACocoDetector/viadetectdemo/src/main/AndroidManifest.xml:10:9-35
	android:theme
		ADDED from /home/jim/Desktop/2019MeichuHackathon/VIACocoDetector/viadetectdemo/src/main/AndroidManifest.xml:15:9-40
activity#com.via.viadetectdemo.Coco_Detection
ADDED from /home/jim/Desktop/2019MeichuHackathon/VIACocoDetector/viadetectdemo/src/main/AndroidManifest.xml:16:9-27:20
	android:screenOrientation
		ADDED from /home/jim/Desktop/2019MeichuHackathon/VIACocoDetector/viadetectdemo/src/main/AndroidManifest.xml:21:13-50
	android:label
		ADDED from /home/jim/Desktop/2019MeichuHackathon/VIACocoDetector/viadetectdemo/src/main/AndroidManifest.xml:19:13-45
	android:configChanges
		ADDED from /home/jim/Desktop/2019MeichuHackathon/VIACocoDetector/viadetectdemo/src/main/AndroidManifest.xml:18:13-74
	android:theme
		ADDED from /home/jim/Desktop/2019MeichuHackathon/VIACocoDetector/viadetectdemo/src/main/AndroidManifest.xml:20:13-51
	android:name
		ADDED from /home/jim/Desktop/2019MeichuHackathon/VIACocoDetector/viadetectdemo/src/main/AndroidManifest.xml:17:13-43
intent-filter#action:name:android.intent.action.MAIN+category:name:android.intent.category.LAUNCHER
ADDED from /home/jim/Desktop/2019MeichuHackathon/VIACocoDetector/viadetectdemo/src/main/AndroidManifest.xml:22:13-26:29
action#android.intent.action.MAIN
ADDED from /home/jim/Desktop/2019MeichuHackathon/VIACocoDetector/viadetectdemo/src/main/AndroidManifest.xml:23:17-69
	android:name
		ADDED from /home/jim/Desktop/2019MeichuHackathon/VIACocoDetector/viadetectdemo/src/main/AndroidManifest.xml:23:25-66
category#android.intent.category.LAUNCHER
ADDED from /home/jim/Desktop/2019MeichuHackathon/VIACocoDetector/viadetectdemo/src/main/AndroidManifest.xml:25:17-77
	android:name
		ADDED from /home/jim/Desktop/2019MeichuHackathon/VIACocoDetector/viadetectdemo/src/main/AndroidManifest.xml:25:27-74
uses-sdk
INJECTED from /home/jim/Desktop/2019MeichuHackathon/VIACocoDetector/viadetectdemo/src/main/AndroidManifest.xml reason: use-sdk injection requested
INJECTED from /home/jim/Desktop/2019MeichuHackathon/VIACocoDetector/viadetectdemo/src/main/AndroidManifest.xml
INJECTED from /home/jim/Desktop/2019MeichuHackathon/VIACocoDetector/viadetectdemo/src/main/AndroidManifest.xml
MERGED from [:snpe-libs-release:] /home/jim/.gradle/caches/transforms-2/files-2.1/ce419364cdd18fdf90e94714c35c458f/snpe-libs-release/AndroidManifest.xml:12:5-14:41
MERGED from [:snpe-libs-release:] /home/jim/.gradle/caches/transforms-2/files-2.1/ce419364cdd18fdf90e94714c35c458f/snpe-libs-release/AndroidManifest.xml:12:5-14:41
MERGED from [:VIADetect-Coco-release:] /home/jim/.gradle/caches/transforms-2/files-2.1/5d025ee33dfa131632f786675822aedb/VIADetect-Coco-release/AndroidManifest.xml:7:5-9:41
MERGED from [:VIADetect-Coco-release:] /home/jim/.gradle/caches/transforms-2/files-2.1/5d025ee33dfa131632f786675822aedb/VIADetect-Coco-release/AndroidManifest.xml:7:5-9:41
MERGED from [com.android.support:appcompat-v7:26.1.0] /home/jim/.gradle/caches/transforms-2/files-2.1/c589bb7ec2d841c67ae68a3682166223/appcompat-v7-26.1.0/AndroidManifest.xml:21:5-23:78
MERGED from [com.android.support:appcompat-v7:26.1.0] /home/jim/.gradle/caches/transforms-2/files-2.1/c589bb7ec2d841c67ae68a3682166223/appcompat-v7-26.1.0/AndroidManifest.xml:21:5-23:78
MERGED from [com.github.angads25:filepicker:1.1.1] /home/jim/.gradle/caches/transforms-2/files-2.1/f4843ec47a82a122f624a929425ae839/filepicker-1.1.1/AndroidManifest.xml:7:5-9:41
MERGED from [com.github.angads25:filepicker:1.1.1] /home/jim/.gradle/caches/transforms-2/files-2.1/f4843ec47a82a122f624a929425ae839/filepicker-1.1.1/AndroidManifest.xml:7:5-9:41
MERGED from [com.android.support:animated-vector-drawable:26.1.0] /home/jim/.gradle/caches/transforms-2/files-2.1/135e175a0ef22ce0a476b55a11aa6553/animated-vector-drawable-26.1.0/AndroidManifest.xml:20:5-44
MERGED from [com.android.support:animated-vector-drawable:26.1.0] /home/jim/.gradle/caches/transforms-2/files-2.1/135e175a0ef22ce0a476b55a11aa6553/animated-vector-drawable-26.1.0/AndroidManifest.xml:20:5-44
MERGED from [com.android.support:support-vector-drawable:26.1.0] /home/jim/.gradle/caches/transforms-2/files-2.1/1a321b7ca993b48f74ebfe2a4c780bca/support-vector-drawable-26.1.0/AndroidManifest.xml:20:5-44
MERGED from [com.android.support:support-vector-drawable:26.1.0] /home/jim/.gradle/caches/transforms-2/files-2.1/1a321b7ca993b48f74ebfe2a4c780bca/support-vector-drawable-26.1.0/AndroidManifest.xml:20:5-44
MERGED from [com.android.support:support-v4:26.1.0] /home/jim/.gradle/caches/transforms-2/files-2.1/9f83784eeafe2d776a50e825ed305ad1/support-v4-26.1.0/AndroidManifest.xml:21:5-23:54
MERGED from [com.android.support:support-v4:26.1.0] /home/jim/.gradle/caches/transforms-2/files-2.1/9f83784eeafe2d776a50e825ed305ad1/support-v4-26.1.0/AndroidManifest.xml:21:5-23:54
MERGED from [com.android.support:support-media-compat:26.1.0] /home/jim/.gradle/caches/transforms-2/files-2.1/76255774f047056d070aaccfb1365509/support-media-compat-26.1.0/AndroidManifest.xml:21:5-23:63
MERGED from [com.android.support:support-media-compat:26.1.0] /home/jim/.gradle/caches/transforms-2/files-2.1/76255774f047056d070aaccfb1365509/support-media-compat-26.1.0/AndroidManifest.xml:21:5-23:63
MERGED from [com.android.support:support-fragment:26.1.0] /home/jim/.gradle/caches/transforms-2/files-2.1/835b00f0eaa3a4dded0721b4e7a325bd/support-fragment-26.1.0/AndroidManifest.xml:21:5-23:60
MERGED from [com.android.support:support-fragment:26.1.0] /home/jim/.gradle/caches/transforms-2/files-2.1/835b00f0eaa3a4dded0721b4e7a325bd/support-fragment-26.1.0/AndroidManifest.xml:21:5-23:60
MERGED from [com.android.support:support-core-utils:26.1.0] /home/jim/.gradle/caches/transforms-2/files-2.1/e60f63cc7ce4683a1fb220948dd8c54d/support-core-utils-26.1.0/AndroidManifest.xml:21:5-23:61
MERGED from [com.android.support:support-core-utils:26.1.0] /home/jim/.gradle/caches/transforms-2/files-2.1/e60f63cc7ce4683a1fb220948dd8c54d/support-core-utils-26.1.0/AndroidManifest.xml:21:5-23:61
MERGED from [com.android.support:support-core-ui:26.1.0] /home/jim/.gradle/caches/transforms-2/files-2.1/54addbd48bc777bd7c2feb0c98546e12/support-core-ui-26.1.0/AndroidManifest.xml:21:5-23:58
MERGED from [com.android.support:support-core-ui:26.1.0] /home/jim/.gradle/caches/transforms-2/files-2.1/54addbd48bc777bd7c2feb0c98546e12/support-core-ui-26.1.0/AndroidManifest.xml:21:5-23:58
MERGED from [com.android.support:support-compat:26.1.0] /home/jim/.gradle/caches/transforms-2/files-2.1/40a3342781d7a4b08caa38af177e1b14/support-compat-26.1.0/AndroidManifest.xml:21:5-23:58
MERGED from [com.android.support:support-compat:26.1.0] /home/jim/.gradle/caches/transforms-2/files-2.1/40a3342781d7a4b08caa38af177e1b14/support-compat-26.1.0/AndroidManifest.xml:21:5-23:58
MERGED from [android.arch.lifecycle:runtime:1.0.0] /home/jim/.gradle/caches/transforms-2/files-2.1/d0f6449185399ce77e6ff49656abaac3/runtime-1.0.0/AndroidManifest.xml:20:5-22:41
MERGED from [android.arch.lifecycle:runtime:1.0.0] /home/jim/.gradle/caches/transforms-2/files-2.1/d0f6449185399ce77e6ff49656abaac3/runtime-1.0.0/AndroidManifest.xml:20:5-22:41
INJECTED from /home/jim/Desktop/2019MeichuHackathon/VIACocoDetector/viadetectdemo/src/main/AndroidManifest.xml
INJECTED from /home/jim/Desktop/2019MeichuHackathon/VIACocoDetector/viadetectdemo/src/main/AndroidManifest.xml
	tools:overrideLibrary
		ADDED from [com.android.support:appcompat-v7:26.1.0] /home/jim/.gradle/caches/transforms-2/files-2.1/c589bb7ec2d841c67ae68a3682166223/appcompat-v7-26.1.0/AndroidManifest.xml:23:9-75
	android:targetSdkVersion
		INJECTED from /home/jim/Desktop/2019MeichuHackathon/VIACocoDetector/viadetectdemo/src/main/AndroidManifest.xml
		ADDED from /home/jim/Desktop/2019MeichuHackathon/VIACocoDetector/viadetectdemo/src/main/AndroidManifest.xml
		INJECTED from /home/jim/Desktop/2019MeichuHackathon/VIACocoDetector/viadetectdemo/src/main/AndroidManifest.xml
	android:minSdkVersion
		INJECTED from /home/jim/Desktop/2019MeichuHackathon/VIACocoDetector/viadetectdemo/src/main/AndroidManifest.xml
		ADDED from /home/jim/Desktop/2019MeichuHackathon/VIACocoDetector/viadetectdemo/src/main/AndroidManifest.xml
		INJECTED from /home/jim/Desktop/2019MeichuHackathon/VIACocoDetector/viadetectdemo/src/main/AndroidManifest.xml
meta-data#android.support.VERSION
ADDED from [com.android.support:appcompat-v7:26.1.0] /home/jim/.gradle/caches/transforms-2/files-2.1/c589bb7ec2d841c67ae68a3682166223/appcompat-v7-26.1.0/AndroidManifest.xml:26:9-28:38
MERGED from [com.android.support:animated-vector-drawable:26.1.0] /home/jim/.gradle/caches/transforms-2/files-2.1/135e175a0ef22ce0a476b55a11aa6553/animated-vector-drawable-26.1.0/AndroidManifest.xml:23:9-25:38
MERGED from [com.android.support:animated-vector-drawable:26.1.0] /home/jim/.gradle/caches/transforms-2/files-2.1/135e175a0ef22ce0a476b55a11aa6553/animated-vector-drawable-26.1.0/AndroidManifest.xml:23:9-25:38
MERGED from [com.android.support:support-vector-drawable:26.1.0] /home/jim/.gradle/caches/transforms-2/files-2.1/1a321b7ca993b48f74ebfe2a4c780bca/support-vector-drawable-26.1.0/AndroidManifest.xml:23:9-25:38
MERGED from [com.android.support:support-vector-drawable:26.1.0] /home/jim/.gradle/caches/transforms-2/files-2.1/1a321b7ca993b48f74ebfe2a4c780bca/support-vector-drawable-26.1.0/AndroidManifest.xml:23:9-25:38
MERGED from [com.android.support:support-v4:26.1.0] /home/jim/.gradle/caches/transforms-2/files-2.1/9f83784eeafe2d776a50e825ed305ad1/support-v4-26.1.0/AndroidManifest.xml:26:9-28:38
MERGED from [com.android.support:support-v4:26.1.0] /home/jim/.gradle/caches/transforms-2/files-2.1/9f83784eeafe2d776a50e825ed305ad1/support-v4-26.1.0/AndroidManifest.xml:26:9-28:38
MERGED from [com.android.support:support-media-compat:26.1.0] /home/jim/.gradle/caches/transforms-2/files-2.1/76255774f047056d070aaccfb1365509/support-media-compat-26.1.0/AndroidManifest.xml:26:9-28:38
MERGED from [com.android.support:support-media-compat:26.1.0] /home/jim/.gradle/caches/transforms-2/files-2.1/76255774f047056d070aaccfb1365509/support-media-compat-26.1.0/AndroidManifest.xml:26:9-28:38
MERGED from [com.android.support:support-fragment:26.1.0] /home/jim/.gradle/caches/transforms-2/files-2.1/835b00f0eaa3a4dded0721b4e7a325bd/support-fragment-26.1.0/AndroidManifest.xml:26:9-28:38
MERGED from [com.android.support:support-fragment:26.1.0] /home/jim/.gradle/caches/transforms-2/files-2.1/835b00f0eaa3a4dded0721b4e7a325bd/support-fragment-26.1.0/AndroidManifest.xml:26:9-28:38
MERGED from [com.android.support:support-core-utils:26.1.0] /home/jim/.gradle/caches/transforms-2/files-2.1/e60f63cc7ce4683a1fb220948dd8c54d/support-core-utils-26.1.0/AndroidManifest.xml:26:9-28:38
MERGED from [com.android.support:support-core-utils:26.1.0] /home/jim/.gradle/caches/transforms-2/files-2.1/e60f63cc7ce4683a1fb220948dd8c54d/support-core-utils-26.1.0/AndroidManifest.xml:26:9-28:38
MERGED from [com.android.support:support-core-ui:26.1.0] /home/jim/.gradle/caches/transforms-2/files-2.1/54addbd48bc777bd7c2feb0c98546e12/support-core-ui-26.1.0/AndroidManifest.xml:26:9-28:38
MERGED from [com.android.support:support-core-ui:26.1.0] /home/jim/.gradle/caches/transforms-2/files-2.1/54addbd48bc777bd7c2feb0c98546e12/support-core-ui-26.1.0/AndroidManifest.xml:26:9-28:38
MERGED from [com.android.support:support-compat:26.1.0] /home/jim/.gradle/caches/transforms-2/files-2.1/40a3342781d7a4b08caa38af177e1b14/support-compat-26.1.0/AndroidManifest.xml:26:9-28:38
MERGED from [com.android.support:support-compat:26.1.0] /home/jim/.gradle/caches/transforms-2/files-2.1/40a3342781d7a4b08caa38af177e1b14/support-compat-26.1.0/AndroidManifest.xml:26:9-28:38
	android:value
		ADDED from [com.android.support:appcompat-v7:26.1.0] /home/jim/.gradle/caches/transforms-2/files-2.1/c589bb7ec2d841c67ae68a3682166223/appcompat-v7-26.1.0/AndroidManifest.xml:28:13-35
	android:name
		ADDED from [com.android.support:appcompat-v7:26.1.0] /home/jim/.gradle/caches/transforms-2/files-2.1/c589bb7ec2d841c67ae68a3682166223/appcompat-v7-26.1.0/AndroidManifest.xml:27:13-51
meta-data#android.arch.lifecycle.VERSION
ADDED from [android.arch.lifecycle:runtime:1.0.0] /home/jim/.gradle/caches/transforms-2/files-2.1/d0f6449185399ce77e6ff49656abaac3/runtime-1.0.0/AndroidManifest.xml:25:9-27:47
	android:value
		ADDED from [android.arch.lifecycle:runtime:1.0.0] /home/jim/.gradle/caches/transforms-2/files-2.1/d0f6449185399ce77e6ff49656abaac3/runtime-1.0.0/AndroidManifest.xml:27:13-44
	android:name
		ADDED from [android.arch.lifecycle:runtime:1.0.0] /home/jim/.gradle/caches/transforms-2/files-2.1/d0f6449185399ce77e6ff49656abaac3/runtime-1.0.0/AndroidManifest.xml:26:13-58
